/home/null/NetBeansProjects/books-rest-jpa/src/main/java/ro/andrei/books/rest/jpa/Application.java
/home/null/NetBeansProjects/books-rest-jpa/src/main/java/ro/andrei/books/rest/jpa/CategoryController.java
/home/null/NetBeansProjects/books-rest-jpa/src/main/java/ro/andrei/books/rest/jpa/BookController.java
/home/null/NetBeansProjects/books-rest-jpa/src/main/java/ro/andrei/books/rest/jpa/entities/Category.java
/home/null/NetBeansProjects/books-rest-jpa/src/main/java/ro/andrei/books/rest/jpa/entities/Book.java
/home/null/NetBeansProjects/books-rest-jpa/src/main/java/ro/andrei/books/rest/jpa/entities/CategoryRepository.java
